I2C/i2c_tb.vcd
$date
	Tue Apr 21 21:35:22 2026
$end
$version
	ModelSim Version 10.1d
$end
$timescale
	1ps
$end
$scope module i2c_tb $end
$var parameter 32 ! CLK_PERIOD $end
$var parameter 7 " SLAVE_ADDR $end
$var parameter 8 # WRITE_DATA $end
$var reg 1 $ clk $end
$var reg 1 % rst_n $end
$var reg 1 & start $end
$var reg 7 ' slave_addr [6:0] $end
$var reg 8 ( tx_data [7:0] $end
$var wire 1 ) busy $end
$var wire 1 * done $end
$var wire 1 + ack_error $end
$var wire 1 , debug_byte [7] $end
$var wire 1 - debug_byte [6] $end
$var wire 1 . debug_byte [5] $end
$var wire 1 / debug_byte [4] $end
$var wire 1 0 debug_byte [3] $end
$var wire 1 1 debug_byte [2] $end
$var wire 1 2 debug_byte [1] $end
$var wire 1 3 debug_byte [0] $end
$var wire 1 4 debug_phase [2] $end
$var wire 1 5 debug_phase [1] $end
$var wire 1 6 debug_phase [0] $end
$var tri1 1 7 scl $end
$var tri1 1 8 sda $end
$var wire 1 9 slave_rx_data [7] $end
$var wire 1 : slave_rx_data [6] $end
$var wire 1 ; slave_rx_data [5] $end
$var wire 1 < slave_rx_data [4] $end
$var wire 1 = slave_rx_data [3] $end
$var wire 1 > slave_rx_data [2] $end
$var wire 1 ? slave_rx_data [1] $end
$var wire 1 @ slave_rx_data [0] $end
$var wire 1 A slave_rx_done $end
$var wire 1 B addr_match $end
$var integer 32 C error_count $end
$var reg 1 D slave_rx_done_seen $end
$scope module u_master $end
$var parameter 32 E CLK_DIV $end
$var parameter 4 F S_IDLE $end
$var parameter 4 G S_START $end
$var parameter 4 H S_SEND_ADDR $end
$var parameter 4 I S_ADDR_ACK $end
$var parameter 4 J S_SEND_DATA $end
$var parameter 4 K S_DATA_ACK $end
$var parameter 4 L S_STOP $end
$var parameter 4 M S_FINISH $end
$var wire 1 N clk $end
$var wire 1 O rst_n $end
$var wire 1 P start $end
$var wire 1 Q slave_addr [6] $end
$var wire 1 R slave_addr [5] $end
$var wire 1 S slave_addr [4] $end
$var wire 1 T slave_addr [3] $end
$var wire 1 U slave_addr [2] $end
$var wire 1 V slave_addr [1] $end
$var wire 1 W slave_addr [0] $end
$var wire 1 X tx_data [7] $end
$var wire 1 Y tx_data [6] $end
$var wire 1 Z tx_data [5] $end
$var wire 1 [ tx_data [4] $end
$var wire 1 \ tx_data [3] $end
$var wire 1 ] tx_data [2] $end
$var wire 1 ^ tx_data [1] $end
$var wire 1 _ tx_data [0] $end
$var reg 1 ` busy $end
$var reg 1 a done $end
$var reg 1 b ack_error $end
$var reg 8 c debug_byte [7:0] $end
$var reg 3 d debug_phase [2:0] $end
$var wire 1 7 scl $end
$var wire 1 8 sda $end
$var reg 4 e state [3:0] $end
$var reg 2 f phase [1:0] $end
$var reg 8 g shift_reg [7:0] $end
$var reg 3 h bit_count [2:0] $end
$var reg 16 i clk_div_cnt [15:0] $end
$var reg 1 j scl_drive_low $end
$var reg 1 k sda_drive_low $end
$var reg 1 l start_latched $end
$var wire 1 m sda_in $end
$upscope $end
$scope module u_slave $end
$var parameter 7 n SLAVE_ADDR $end
$var parameter 3 o S_IDLE $end
$var parameter 3 p S_ADDR $end
$var parameter 3 q S_ADDR_ACK $end
$var parameter 3 r S_DATA $end
$var parameter 3 s S_DATA_ACK $end
$var wire 1 t rst_n $end
$var wire 1 7 scl $end
$var wire 1 8 sda $end
$var reg 8 u rx_data [7:0] $end
$var reg 1 v rx_done $end
$var reg 1 w addr_match $end
$var reg 3 x state [2:0] $end
$var reg 8 y addr_shift [7:0] $end
$var reg 8 z data_shift [7:0] $end
$var reg 3 { bit_count [2:0] $end
$var reg 1 | sda_drive_low $end
$var wire 1 } sda_in $end
$upscope $end
$upscope $end
$enddefinitions $end
#0
$dumpvars
0$
0%
0&
b0 '
b0 (
0D
0`
0a
0b
b0 c
b0 d
b0 e
b0 f
b0 g
b0 h
b0 i
0j
0k
0l
b0 u
0v
0w
b0 x
b0 y
b0 z
b111 {
0|
b10100 !
b1000010 "
b10100110 #
b10000 E
b0 F
b1 G
b10 H
b11 I
b100 J
b101 K
b110 L
b111 M
b1000010 n
b0 o
b1 p
b10 q
b11 r
b100 s
b0 C
0)
0*
0+
03
02
01
00
0/
0.
0-
0,
06
05
04
17
18
0@
0?
0>
0=
0<
0;
0:
09
0A
0B
1m
1}
0t
0_
0^
0]
0\
0[
0Z
0Y
0X
0W
0V
0U
0T
0S
0R
0Q
0P
0O
0N
$end
#10000
1$
1N
#20000
0$
0N
#30000
1$
1N
#40000
0$
0N
#50000
1$
1N
#60000
0$
0N
#70000
1$
1N
#80000
0$
0N
#90000
1$
1N
#100000
1%
0$
1O
1t
0N
#110000
1$
1N
b1 i
#120000
0$
0N
#130000
1$
1N
b10 i
#140000
0$
0N
#150000
1$
1N
b11 i
#160000
0$
0N
#170000
1$
1N
b100 i
#180000
0$
0N
#190000
1$
1N
b101 i
#200000
0$
0N
#210000
1$
1N
b110 i
b1000010 '
b10100110 (
1&
1^
1]
1Z
1X
1V
1Q
1P
#220000
0$
0N
#230000
1$
1N
1l
b111 i
0&
0P
#240000
0$
0N
#250000
1$
1N
b1000 i
#260000
0$
0N
#270000
1$
1N
b1001 i
#280000
0$
0N
#290000
1$
1N
b1010 i
#300000
0$
0N
#310000
1$
1N
b1011 i
#320000
0$
0N
#330000
1$
1N
b1100 i
#340000
0$
0N
#350000
1$
1N
b1101 i
#360000
0$
0N
#370000
1$
1N
b1110 i
#380000
0$
0N
#390000
1$
1N
b1111 i
#400000
0$
0N
#410000
1$
1N
b0 i
1`
b10000100 g
b10000100 c
b111 h
0l
b1 e
1)
11
1,
#420000
0$
0N
#430000
1$
1N
b1 i
#440000
0$
0N
#450000
1$
1N
b10 i
#460000
0$
0N
#470000
1$
1N
b11 i
#480000
0$
0N
#490000
1$
1N
b100 i
#500000
0$
0N
#510000
1$
1N
b101 i
#520000
0$
0N
#530000
1$
1N
b110 i
#540000
0$
0N
#550000
1$
1N
b111 i
#560000
0$
0N
#570000
1$
1N
b1000 i
#580000
0$
0N
#590000
1$
1N
b1001 i
#600000
0$
0N
#610000
1$
1N
b1010 i
#620000
0$
0N
#630000
1$
1N
b1011 i
#640000
0$
0N
#650000
1$
1N
b1100 i
#660000
0$
0N
#670000
1$
1N
b1101 i
#680000
0$
0N
#690000
1$
1N
b1110 i
#700000
0$
0N
#710000
1$
1N
b1111 i
#720000
0$
0N
#730000
1$
1N
b0 i
b1 f
#740000
0$
0N
#750000
1$
1N
b1 i
#760000
0$
0N
#770000
1$
1N
b10 i
#780000
0$
0N
#790000
1$
1N
b11 i
#800000
0$
0N
#810000
1$
1N
b100 i
#820000
0$
0N
#830000
1$
1N
b101 i
#840000
0$
0N
#850000
1$
1N
b110 i
#860000
0$
0N
#870000
1$
1N
b111 i
#880000
0$
0N
#890000
1$
1N
b1000 i
#900000
0$
0N
#910000
1$
1N
b1001 i
#920000
0$
0N
#930000
1$
1N
b1010 i
#940000
0$
0N
#950000
1$
1N
b1011 i
#960000
0$
0N
#970000
1$
1N
b1100 i
#980000
0$
0N
#990000
1$
1N
b1101 i
#1000000
0$
0N
#1010000
1$
1N
b1110 i
#1020000
0$
0N
#1030000
1$
1N
b1111 i
#1040000
0$
0N
#1050000
1$
1N
b0 i
1k
b10 f
08
0}
0m
b1 x
#1060000
0$
0N
#1070000
1$
1N
b1 i
#1080000
0$
0N
#1090000
1$
1N
b10 i
#1100000
0$
0N
#1110000
1$
1N
b11 i
#1120000
0$
0N
#1130000
1$
1N
b100 i
#1140000
0$
0N
#1150000
1$
1N
b101 i
#1160000
0$
0N
#1170000
1$
1N
b110 i
#1180000
0$
0N
#1190000
1$
1N
b111 i
#1200000
0$
0N
#1210000
1$
1N
b1000 i
#1220000
0$
0N
#1230000
1$
1N
b1001 i
#1240000
0$
0N
#1250000
1$
1N
b1010 i
#1260000
0$
0N
#1270000
1$
1N
b1011 i
#1280000
0$
0N
#1290000
1$
1N
b1100 i
#1300000
0$
0N
#1310000
1$
1N
b1101 i
#1320000
0$
0N
#1330000
1$
1N
b1110 i
#1340000
0$
0N
#1350000
1$
1N
b1111 i
#1360000
0$
0N
#1370000
1$
1N
b0 i
1j
b0 f
b1 d
b10 e
16
07
#1380000
0$
0N
#1390000
1$
1N
b1 i
#1400000
0$
0N
#1410000
1$
1N
b10 i
#1420000
0$
0N
#1430000
1$
1N
b11 i
#1440000
0$
0N
#1450000
1$
1N
b100 i
#1460000
0$
0N
#1470000
1$
1N
b101 i
#1480000
0$
0N
#1490000
1$
1N
b110 i
#1500000
0$
0N
#1510000
1$
1N
b111 i
#1520000
0$
0N
#1530000
1$
1N
b1000 i
#1540000
0$
0N
#1550000
1$
1N
b1001 i
#1560000
0$
0N
#1570000
1$
1N
b1010 i
#1580000
0$
0N
#1590000
1$
1N
b1011 i
#1600000
0$
0N
#1610000
1$
1N
b1100 i
#1620000
0$
0N
#1630000
1$
1N
b1101 i
#1640000
0$
0N
#1650000
1$
1N
b1110 i
#1660000
0$
0N
#1670000
1$
1N
b1111 i
#1680000
0$
0N
#1690000
1$
1N
b0 i
0k
b1 f
18
1}
1m
#1700000
0$
0N
#1710000
1$
1N
b1 i
#1720000
0$
0N
#1730000
1$
1N
b10 i
#1740000
0$
0N
#1750000
1$
1N
b11 i
#1760000
0$
0N
#1770000
1$
1N
b100 i
#1780000
0$
0N
#1790000
1$
1N
b101 i
#1800000
0$
0N
#1810000
1$
1N
b110 i
#1820000
0$
0N
#1830000
1$
1N
b111 i
#1840000
0$
0N
#1850000
1$
1N
b1000 i
#1860000
0$
0N
#1870000
1$
1N
b1001 i
#1880000
0$
0N
#1890000
1$
1N
b1010 i
#1900000
0$
0N
#1910000
1$
1N
b1011 i
#1920000
0$
0N
#1930000
1$
1N
b1100 i
#1940000
0$
0N
#1950000
1$
1N
b1101 i
#1960000
0$
0N
#1970000
1$
1N
b1110 i
#1980000
0$
0N
#1990000
1$
1N
b1111 i
#2000000
0$
0N
#2010000
1$
1N
b0 i
0j
b10 f
17
b10000000 y
b110 {
#2020000
0$
0N
#2030000
1$
1N
b1 i
#2040000
0$
0N
#2050000
1$
1N
b10 i
#2060000
0$
0N
#2070000
1$
1N
b11 i
#2080000
0$
0N
#2090000
1$
1N
b100 i
#2100000
0$
0N
#2110000
1$
1N
b101 i
#2120000
0$
0N
#2130000
1$
1N
b110 i
#2140000
0$
0N
#2150000
1$
1N
b111 i
#2160000
0$
0N
#2170000
1$
1N
b1000 i
#2180000
0$
0N
#2190000
1$
1N
b1001 i
#2200000
0$
0N
#2210000
1$
1N
b1010 i
#2220000
0$
0N
#2230000
1$
1N
b1011 i
#2240000
0$
0N
#2250000
1$
1N
b1100 i
#2260000
0$
0N
#2270000
1$
1N
b1101 i
#2280000
0$
0N
#2290000
1$
1N
b1110 i
#2300000
0$
0N
#2310000
1$
1N
b1111 i
#2320000
0$
0N
#2330000
1$
1N
b0 i
1j
b110 h
b0 f
07
#2340000
0$
0N
#2350000
1$
1N
b1 i
#2360000
0$
0N
#2370000
1$
1N
b10 i
#2380000
0$
0N
#2390000
1$
1N
b11 i
#2400000
0$
0N
#2410000
1$
1N
b100 i
#2420000
0$
0N
#2430000
1$
1N
b101 i
#2440000
0$
0N
#2450000
1$
1N
b110 i
#2460000
0$
0N
#2470000
1$
1N
b111 i
#2480000
0$
0N
#2490000
1$
1N
b1000 i
#2500000
0$
0N
#2510000
1$
1N
b1001 i
#2520000
0$
0N
#2530000
1$
1N
b1010 i
#2540000
0$
0N
#2550000
1$
1N
b1011 i
#2560000
0$
0N
#2570000
1$
1N
b1100 i
#2580000
0$
0N
#2590000
1$
1N
b1101 i
#2600000
0$
0N
#2610000
1$
1N
b1110 i
#2620000
0$
0N
#2630000
1$
1N
b1111 i
#2640000
0$
0N
#2650000
1$
1N
b0 i
1k
b1 f
08
0}
0m
#2660000
0$
0N
#2670000
1$
1N
b1 i
#2680000
0$
0N
#2690000
1$
1N
b10 i
#2700000
0$
0N
#2710000
1$
1N
b11 i
#2720000
0$
0N
#2730000
1$
1N
b100 i
#2740000
0$
0N
#2750000
1$
1N
b101 i
#2760000
0$
0N
#2770000
1$
1N
b110 i
#2780000
0$
0N
#2790000
1$
1N
b111 i
#2800000
0$
0N
#2810000
1$
1N
b1000 i
#2820000
0$
0N
#2830000
1$
1N
b1001 i
#2840000
0$
0N
#2850000
1$
1N
b1010 i
#2860000
0$
0N
#2870000
1$
1N
b1011 i
#2880000
0$
0N
#2890000
1$
1N
b1100 i
#2900000
0$
0N
#2910000
1$
1N
b1101 i
#2920000
0$
0N
#2930000
1$
1N
b1110 i
#2940000
0$
0N
#2950000
1$
1N
b1111 i
#2960000
0$
0N
#2970000
1$
1N
b0 i
0j
b10 f
17
b101 {
#2980000
0$
0N
#2990000
1$
1N
b1 i
#3000000
0$
0N
#3010000
1$
1N
b10 i
#3020000
0$
0N
#3030000
1$
1N
b11 i
#3040000
0$
0N
#3050000
1$
1N
b100 i
#3060000
0$
0N
#3070000
1$
1N
b101 i
#3080000
0$
0N
#3090000
1$
1N
b110 i
#3100000
0$
0N
#3110000
1$
1N
b111 i
#3120000
0$
0N
#3130000
1$
1N
b1000 i
#3140000
0$
0N
#3150000
1$
1N
b1001 i
#3160000
0$
0N
#3170000
1$
1N
b1010 i
#3180000
0$
0N
#3190000
1$
1N
b1011 i
#3200000
0$
0N
#3210000
1$
1N
b1100 i
#3220000
0$
0N
#3230000
1$
1N
b1101 i
#3240000
0$
0N
#3250000
1$
1N
b1110 i
#3260000
0$
0N
#3270000
1$
1N
b1111 i
#3280000
0$
0N
#3290000
1$
1N
b0 i
1j
b101 h
b0 f
07
#3300000
0$
0N
#3310000
1$
1N
b1 i
#3320000
0$
0N
#3330000
1$
1N
b10 i
#3340000
0$
0N
#3350000
1$
1N
b11 i
#3360000
0$
0N
#3370000
1$
1N
b100 i
#3380000
0$
0N
#3390000
1$
1N
b101 i
#3400000
0$
0N
#3410000
1$
1N
b110 i
#3420000
0$
0N
#3430000
1$
1N
b111 i
#3440000
0$
0N
#3450000
1$
1N
b1000 i
#3460000
0$
0N
#3470000
1$
1N
b1001 i
#3480000
0$
0N
#3490000
1$
1N
b1010 i
#3500000
0$
0N
#3510000
1$
1N
b1011 i
#3520000
0$
0N
#3530000
1$
1N
b1100 i
#3540000
0$
0N
#3550000
1$
1N
b1101 i
#3560000
0$
0N
#3570000
1$
1N
b1110 i
#3580000
0$
0N
#3590000
1$
1N
b1111 i
#3600000
0$
0N
#3610000
1$
1N
b0 i
b1 f
#3620000
0$
0N
#3630000
1$
1N
b1 i
#3640000
0$
0N
#3650000
1$
1N
b10 i
#3660000
0$
0N
#3670000
1$
1N
b11 i
#3680000
0$
0N
#3690000
1$
1N
b100 i
#3700000
0$
0N
#3710000
1$
1N
b101 i
#3720000
0$
0N
#3730000
1$
1N
b110 i
#3740000
0$
0N
#3750000
1$
1N
b111 i
#3760000
0$
0N
#3770000
1$
1N
b1000 i
#3780000
0$
0N
#3790000
1$
1N
b1001 i
#3800000
0$
0N
#3810000
1$
1N
b1010 i
#3820000
0$
0N
#3830000
1$
1N
b1011 i
#3840000
0$
0N
#3850000
1$
1N
b1100 i
#3860000
0$
0N
#3870000
1$
1N
b1101 i
#3880000
0$
0N
#3890000
1$
1N
b1110 i
#3900000
0$
0N
#3910000
1$
1N
b1111 i
#3920000
0$
0N
#3930000
1$
1N
b0 i
0j
b10 f
17
b100 {
#3940000
0$
0N
#3950000
1$
1N
b1 i
#3960000
0$
0N
#3970000
1$
1N
b10 i
#3980000
0$
0N
#3990000
1$
1N
b11 i
#4000000
0$
0N
#4010000
1$
1N
b100 i
#4020000
0$
0N
#4030000
1$
1N
b101 i
#4040000
0$
0N
#4050000
1$
1N
b110 i
#4060000
0$
0N
#4070000
1$
1N
b111 i
#4080000
0$
0N
#4090000
1$
1N
b1000 i
#4100000
0$
0N
#4110000
1$
1N
b1001 i
#4120000
0$
0N
#4130000
1$
1N
b1010 i
#4140000
0$
0N
#4150000
1$
1N
b1011 i
#4160000
0$
0N
#4170000
1$
1N
b1100 i
#4180000
0$
0N
#4190000
1$
1N
b1101 i
#4200000
0$
0N
#4210000
1$
1N
b1110 i
#4220000
0$
0N
#4230000
1$
1N
b1111 i
#4240000
0$
0N
#4250000
1$
1N
b0 i
1j
b100 h
b0 f
07
#4260000
0$
0N
#4270000
1$
1N
b1 i
#4280000
0$
0N
#4290000
1$
1N
b10 i
#4300000
0$
0N
#4310000
1$
1N
b11 i
#4320000
0$
0N
#4330000
1$
1N
b100 i
#4340000
0$
0N
#4350000
1$
1N
b101 i
#4360000
0$
0N
#4370000
1$
1N
b110 i
#4380000
0$
0N
#4390000
1$
1N
b111 i
#4400000
0$
0N
#4410000
1$
1N
b1000 i
#4420000
0$
0N
#4430000
1$
1N
b1001 i
#4440000
0$
0N
#4450000
1$
1N
b1010 i
#4460000
0$
0N
#4470000
1$
1N
b1011 i
#4480000
0$
0N
#4490000
1$
1N
b1100 i
#4500000
0$
0N
#4510000
1$
1N
b1101 i
#4520000
0$
0N
#4530000
1$
1N
b1110 i
#4540000
0$
0N
#4550000
1$
1N
b1111 i
#4560000
0$
0N
#4570000
1$
1N
b0 i
b1 f
#4580000
0$
0N
#4590000
1$
1N
b1 i
#4600000
0$
0N
#4610000
1$
1N
b10 i
#4620000
0$
0N
#4630000
1$
1N
b11 i
#4640000
0$
0N
#4650000
1$
1N
b100 i
#4660000
0$
0N
#4670000
1$
1N
b101 i
#4680000
0$
0N
#4690000
1$
1N
b110 i
#4700000
0$
0N
#4710000
1$
1N
b111 i
#4720000
0$
0N
#4730000
1$
1N
b1000 i
#4740000
0$
0N
#4750000
1$
1N
b1001 i
#4760000
0$
0N
#4770000
1$
1N
b1010 i
#4780000
0$
0N
#4790000
1$
1N
b1011 i
#4800000
0$
0N
#4810000
1$
1N
b1100 i
#4820000
0$
0N
#4830000
1$
1N
b1101 i
#4840000
0$
0N
#4850000
1$
1N
b1110 i
#4860000
0$
0N
#4870000
1$
1N
b1111 i
#4880000
0$
0N
#4890000
1$
1N
b0 i
0j
b10 f
17
b11 {
#4900000
0$
0N
#4910000
1$
1N
b1 i
#4920000
0$
0N
#4930000
1$
1N
b10 i
#4940000
0$
0N
#4950000
1$
1N
b11 i
#4960000
0$
0N
#4970000
1$
1N
b100 i
#4980000
0$
0N
#4990000
1$
1N
b101 i
#5000000
0$
0N
#5010000
1$
1N
b110 i
#5020000
0$
0N
#5030000
1$
1N
b111 i
#5040000
0$
0N
#5050000
1$
1N
b1000 i
#5060000
0$
0N
#5070000
1$
1N
b1001 i
#5080000
0$
0N
#5090000
1$
1N
b1010 i
#5100000
0$
0N
#5110000
1$
1N
b1011 i
#5120000
0$
0N
#5130000
1$
1N
b1100 i
#5140000
0$
0N
#5150000
1$
1N
b1101 i
#5160000
0$
0N
#5170000
1$
1N
b1110 i
#5180000
0$
0N
#5190000
1$
1N
b1111 i
#5200000
0$
0N
#5210000
1$
1N
b0 i
1j
b11 h
b0 f
07
#5220000
0$
0N
#5230000
1$
1N
b1 i
#5240000
0$
0N
#5250000
1$
1N
b10 i
#5260000
0$
0N
#5270000
1$
1N
b11 i
#5280000
0$
0N
#5290000
1$
1N
b100 i
#5300000
0$
0N
#5310000
1$
1N
b101 i
#5320000
0$
0N
#5330000
1$
1N
b110 i
#5340000
0$
0N
#5350000
1$
1N
b111 i
#5360000
0$
0N
#5370000
1$
1N
b1000 i
#5380000
0$
0N
#5390000
1$
1N
b1001 i
#5400000
0$
0N
#5410000
1$
1N
b1010 i
#5420000
0$
0N
#5430000
1$
1N
b1011 i
#5440000
0$
0N
#5450000
1$
1N
b1100 i
#5460000
0$
0N
#5470000
1$
1N
b1101 i
#5480000
0$
0N
#5490000
1$
1N
b1110 i
#5500000
0$
0N
#5510000
1$
1N
b1111 i
#5520000
0$
0N
#5530000
1$
1N
b0 i
b1 f
#5540000
0$
0N
#5550000
1$
1N
b1 i
#5560000
0$
0N
#5570000
1$
1N
b10 i
#5580000
0$
0N
#5590000
1$
1N
b11 i
#5600000
0$
0N
#5610000
1$
1N
b100 i
#5620000
0$
0N
#5630000
1$
1N
b101 i
#5640000
0$
0N
#5650000
1$
1N
b110 i
#5660000
0$
0N
#5670000
1$
1N
b111 i
#5680000
0$
0N
#5690000
1$
1N
b1000 i
#5700000
0$
0N
#5710000
1$
1N
b1001 i
#5720000
0$
0N
#5730000
1$
1N
b1010 i
#5740000
0$
0N
#5750000
1$
1N
b1011 i
#5760000
0$
0N
#5770000
1$
1N
b1100 i
#5780000
0$
0N
#5790000
1$
1N
b1101 i
#5800000
0$
0N
#5810000
1$
1N
b1110 i
#5820000
0$
0N
#5830000
1$
1N
b1111 i
#5840000
0$
0N
#5850000
1$
1N
b0 i
0j
b10 f
17
b10 {
#5860000
0$
0N
#5870000
1$
1N
b1 i
#5880000
0$
0N
#5890000
1$
1N
b10 i
#5900000
0$
0N
#5910000
1$
1N
b11 i
#5920000
0$
0N
#5930000
1$
1N
b100 i
#5940000
0$
0N
#5950000
1$
1N
b101 i
#5960000
0$
0N
#5970000
1$
1N
b110 i
#5980000
0$
0N
#5990000
1$
1N
b111 i
#6000000
0$
0N
#6010000
1$
1N
b1000 i
#6020000
0$
0N
#6030000
1$
1N
b1001 i
#6040000
0$
0N
#6050000
1$
1N
b1010 i
#6060000
0$
0N
#6070000
1$
1N
b1011 i
#6080000
0$
0N
#6090000
1$
1N
b1100 i
#6100000
0$
0N
#6110000
1$
1N
b1101 i
#6120000
0$
0N
#6130000
1$
1N
b1110 i
#6140000
0$
0N
#6150000
1$
1N
b1111 i
#6160000
0$
0N
#6170000
1$
1N
b0 i
1j
b10 h
b0 f
07
#6180000
0$
0N
#6190000
1$
1N
b1 i
#6200000
0$
0N
#6210000
1$
1N
b10 i
#6220000
0$
0N
#6230000
1$
1N
b11 i
#6240000
0$
0N
#6250000
1$
1N
b100 i
#6260000
0$
0N
#6270000
1$
1N
b101 i
#6280000
0$
0N
#6290000
1$
1N
b110 i
#6300000
0$
0N
#6310000
1$
1N
b111 i
#6320000
0$
0N
#6330000
1$
1N
b1000 i
#6340000
0$
0N
#6350000
1$
1N
b1001 i
#6360000
0$
0N
#6370000
1$
1N
b1010 i
#6380000
0$
0N
#6390000
1$
1N
b1011 i
#6400000
0$
0N
#6410000
1$
1N
b1100 i
#6420000
0$
0N
#6430000
1$
1N
b1101 i
#6440000
0$
0N
#6450000
1$
1N
b1110 i
#6460000
0$
0N
#6470000
1$
1N
b1111 i
#6480000
0$
0N
#6490000
1$
1N
b0 i
0k
b1 f
18
1}
1m
#6500000
0$
0N
#6510000
1$
1N
b1 i
#6520000
0$
0N
#6530000
1$
1N
b10 i
#6540000
0$
0N
#6550000
1$
1N
b11 i
#6560000
0$
0N
#6570000
1$
1N
b100 i
#6580000
0$
0N
#6590000
1$
1N
b101 i
#6600000
0$
0N
#6610000
1$
1N
b110 i
#6620000
0$
0N
#6630000
1$
1N
b111 i
#6640000
0$
0N
#6650000
1$
1N
b1000 i
#6660000
0$
0N
#6670000
1$
1N
b1001 i
#6680000
0$
0N
#6690000
1$
1N
b1010 i
#6700000
0$
0N
#6710000
1$
1N
b1011 i
#6720000
0$
0N
#6730000
1$
1N
b1100 i
#6740000
0$
0N
#6750000
1$
1N
b1101 i
#6760000
0$
0N
#6770000
1$
1N
b1110 i
#6780000
0$
0N
#6790000
1$
1N
b1111 i
#6800000
0$
0N
#6810000
1$
1N
b0 i
0j
b10 f
17
b10000100 y
b1 {
#6820000
0$
0N
#6830000
1$
1N
b1 i
#6840000
0$
0N
#6850000
1$
1N
b10 i
#6860000
0$
0N
#6870000
1$
1N
b11 i
#6880000
0$
0N
#6890000
1$
1N
b100 i
#6900000
0$
0N
#6910000
1$
1N
b101 i
#6920000
0$
0N
#6930000
1$
1N
b110 i
#6940000
0$
0N
#6950000
1$
1N
b111 i
#6960000
0$
0N
#6970000
1$
1N
b1000 i
#6980000
0$
0N
#6990000
1$
1N
b1001 i
#7000000
0$
0N
#7010000
1$
1N
b1010 i
#7020000
0$
0N
#7030000
1$
1N
b1011 i
#7040000
0$
0N
#7050000
1$
1N
b1100 i
#7060000
0$
0N
#7070000
1$
1N
b1101 i
#7080000
0$
0N
#7090000
1$
1N
b1110 i
#7100000
0$
0N
#7110000
1$
1N
b1111 i
#7120000
0$
0N
#7130000
1$
1N
b0 i
1j
b1 h
b0 f
07
#7140000
0$
0N
#7150000
1$
1N
b1 i
#7160000
0$
0N
#7170000
1$
1N
b10 i
#7180000
0$
0N
#7190000
1$
1N
b11 i
#7200000
0$
0N
#7210000
1$
1N
b100 i
#7220000
0$
0N
#7230000
1$
1N
b101 i
#7240000
0$
0N
#7250000
1$
1N
b110 i
#7260000
0$
0N
#7270000
1$
1N
b111 i
#7280000
0$
0N
#7290000
1$
1N
b1000 i
#7300000
0$
0N
#7310000
1$
1N
b1001 i
#7320000
0$
0N
#7330000
1$
1N
b1010 i
#7340000
0$
0N
#7350000
1$
1N
b1011 i
#7360000
0$
0N
#7370000
1$
1N
b1100 i
#7380000
0$
0N
#7390000
1$
1N
b1101 i
#7400000
0$
0N
#7410000
1$
1N
b1110 i
#7420000
0$
0N
#7430000
1$
1N
b1111 i
#7440000
0$
0N
#7450000
1$
1N
b0 i
1k
b1 f
08
0}
0m
#7460000
0$
0N
#7470000
1$
1N
b1 i
#7480000
0$
0N
#7490000
1$
1N
b10 i
#7500000
0$
0N
#7510000
1$
1N
b11 i
#7520000
0$
0N
#7530000
1$
1N
b100 i
#7540000
0$
0N
#7550000
1$
1N
b101 i
#7560000
0$
0N
#7570000
1$
1N
b110 i
#7580000
0$
0N
#7590000
1$
1N
b111 i
#7600000
0$
0N
#7610000
1$
1N
b1000 i
#7620000
0$
0N
#7630000
1$
1N
b1001 i
#7640000
0$
0N
#7650000
1$
1N
b1010 i
#7660000
0$
0N
#7670000
1$
1N
b1011 i
#7680000
0$
0N
#7690000
1$
1N
b1100 i
#7700000
0$
0N
#7710000
1$
1N
b1101 i
#7720000
0$
0N
#7730000
1$
1N
b1110 i
#7740000
0$
0N
#7750000
1$
1N
b1111 i
#7760000
0$
0N
#7770000
1$
1N
b0 i
0j
b10 f
17
b0 {
#7780000
0$
0N
#7790000
1$
1N
b1 i
#7800000
0$
0N
#7810000
1$
1N
b10 i
#7820000
0$
0N
#7830000
1$
1N
b11 i
#7840000
0$
0N
#7850000
1$
1N
b100 i
#7860000
0$
0N
#7870000
1$
1N
b101 i
#7880000
0$
0N
#7890000
1$
1N
b110 i
#7900000
0$
0N
#7910000
1$
1N
b111 i
#7920000
0$
0N
#7930000
1$
1N
b1000 i
#7940000
0$
0N
#7950000
1$
1N
b1001 i
#7960000
0$
0N
#7970000
1$
1N
b1010 i
#7980000
0$
0N
#7990000
1$
1N
b1011 i
#8000000
0$
0N
#8010000
1$
1N
b1100 i
#8020000
0$
0N
#8030000
1$
1N
b1101 i
#8040000
0$
0N
#8050000
1$
1N
b1110 i
#8060000
0$
0N
#8070000
1$
1N
b1111 i
#8080000
0$
0N
#8090000
1$
1N
b0 i
1j
b0 h
b0 f
07
#8100000
0$
0N
#8110000
1$
1N
b1 i
#8120000
0$
0N
#8130000
1$
1N
b10 i
#8140000
0$
0N
#8150000
1$
1N
b11 i
#8160000
0$
0N
#8170000
1$
1N
b100 i
#8180000
0$
0N
#8190000
1$
1N
b101 i
#8200000
0$
0N
#8210000
1$
1N
b110 i
#8220000
0$
0N
#8230000
1$
1N
b111 i
#8240000
0$
0N
#8250000
1$
1N
b1000 i
#8260000
0$
0N
#8270000
1$
1N
b1001 i
#8280000
0$
0N
#8290000
1$
1N
b1010 i
#8300000
0$
0N
#8310000
1$
1N
b1011 i
#8320000
0$
0N
#8330000
1$
1N
b1100 i
#8340000
0$
0N
#8350000
1$
1N
b1101 i
#8360000
0$
0N
#8370000
1$
1N
b1110 i
#8380000
0$
0N
#8390000
1$
1N
b1111 i
#8400000
0$
0N
#8410000
1$
1N
b0 i
b1 f
#8420000
0$
0N
#8430000
1$
1N
b1 i
#8440000
0$
0N
#8450000
1$
1N
b10 i
#8460000
0$
0N
#8470000
1$
1N
b11 i
#8480000
0$
0N
#8490000
1$
1N
b100 i
#8500000
0$
0N
#8510000
1$
1N
b101 i
#8520000
0$
0N
#8530000
1$
1N
b110 i
#8540000
0$
0N
#8550000
1$
1N
b111 i
#8560000
0$
0N
#8570000
1$
1N
b1000 i
#8580000
0$
0N
#8590000
1$
1N
b1001 i
#8600000
0$
0N
#8610000
1$
1N
b1010 i
#8620000
0$
0N
#8630000
1$
1N
b1011 i
#8640000
0$
0N
#8650000
1$
1N
b1100 i
#8660000
0$
0N
#8670000
1$
1N
b1101 i
#8680000
0$
0N
#8690000
1$
1N
b1110 i
#8700000
0$
0N
#8710000
1$
1N
b1111 i
#8720000
0$
0N
#8730000
1$
1N
b0 i
0j
b10 f
17
1w
b111 {
b10 x
1B
#8740000
0$
0N
#8750000
1$
1N
b1 i
#8760000
0$
0N
#8770000
1$
1N
b10 i
#8780000
0$
0N
#8790000
1$
1N
b11 i
#8800000
0$
0N
#8810000
1$
1N
b100 i
#8820000
0$
0N
#8830000
1$
1N
b101 i
#8840000
0$
0N
#8850000
1$
1N
b110 i
#8860000
0$
0N
#8870000
1$
1N
b111 i
#8880000
0$
0N
#8890000
1$
1N
b1000 i
#8900000
0$
0N
#8910000
1$
1N
b1001 i
#8920000
0$
0N
#8930000
1$
1N
b1010 i
#8940000
0$
0N
#8950000
1$
1N
b1011 i
#8960000
0$
0N
#8970000
1$
1N
b1100 i
#8980000
0$
0N
#8990000
1$
1N
b1101 i
#9000000
0$
0N
